{
  "urlSlug": {
    "en": "The page name in the URL.",
    "ru": "Имя страницы в URL."
  },
  "metaTitle": {
    "en": "The meta title of the page.",
    "ru": "Мета-заголовок страницы."
  },
  "metaDescription": {
    "en": "The meta description of the page.",
    "ru": "Мета-описание страницы."
  }
}
